module gitlab.com/CarbonCollins/nomad-usb-device-plugin

go 1.18

require (
	github.com/google/gousb v1.1.2
	github.com/hashicorp/go-hclog v1.2.1
	github.com/hashicorp/nomad v1.3.1
	google.golang.org/grpc v1.47.0
)

require (
	github.com/LK4D4/joincontext v0.0.0-20171026170139-1724345da6d5 // indirect
	github.com/Masterminds/goutils v1.1.1 // indirect
	github.com/Masterminds/semver/v3 v3.1.1 // indirect
	github.com/Masterminds/sprig/v3 v3.2.2 // indirect
	github.com/agext/levenshtein v1.2.3 // indirect
	github.com/apparentlymart/go-textseg/v13 v13.0.0 // indirect
	github.com/armon/go-metrics v0.4.0 // indirect
	github.com/armon/go-radix v1.0.0 // indirect
	github.com/bgentry/speakeasy v0.1.0 // indirect
	github.com/cenkalti/backoff/v3 v3.2.2 // indirect
	github.com/container-storage-interface/spec v1.6.0 // indirect
	github.com/davecgh/go-spew v1.1.1 // indirect
	github.com/dustin/go-humanize v1.0.0 // indirect
	github.com/fatih/color v1.13.0 // indirect
	github.com/fsnotify/fsnotify v1.5.4 // indirect
	github.com/go-ole/go-ole v1.2.6 // indirect
	github.com/golang/protobuf v1.5.2 // indirect
	github.com/golang/snappy v0.0.4 // indirect
	github.com/google/uuid v1.3.0 // indirect
	github.com/grpc-ecosystem/go-grpc-middleware v1.3.0 // indirect
	github.com/hashicorp/consul/api v1.13.0 // indirect
	github.com/hashicorp/cronexpr v1.1.1 // indirect
	github.com/hashicorp/errwrap v1.1.0 // indirect
	github.com/hashicorp/go-cleanhttp v0.5.2 // indirect
	github.com/hashicorp/go-immutable-radix v1.3.1 // indirect
	github.com/hashicorp/go-msgpack v1.1.5 // indirect
	github.com/hashicorp/go-multierror v1.1.1 // indirect
	github.com/hashicorp/go-plugin v1.4.4 // indirect
	github.com/hashicorp/go-retryablehttp v0.7.1 // indirect
	github.com/hashicorp/go-rootcerts v1.0.2 // indirect
	github.com/hashicorp/go-secure-stdlib/listenerutil v0.1.4 // indirect
	github.com/hashicorp/go-secure-stdlib/mlock v0.1.2 // indirect
	github.com/hashicorp/go-secure-stdlib/parseutil v0.1.6 // indirect
	github.com/hashicorp/go-secure-stdlib/reloadutil v0.1.1 // indirect
	github.com/hashicorp/go-secure-stdlib/strutil v0.1.2 // indirect
	github.com/hashicorp/go-secure-stdlib/tlsutil v0.1.1 // indirect
	github.com/hashicorp/go-sockaddr v1.0.2 // indirect
	github.com/hashicorp/go-uuid v1.0.3 // indirect
	github.com/hashicorp/go-version v1.6.0 // indirect
	github.com/hashicorp/golang-lru v0.5.4 // indirect
	github.com/hashicorp/hcl v1.0.1-vault-3 // indirect
	github.com/hashicorp/hcl/v2 v2.13.0 // indirect
	github.com/hashicorp/raft v1.3.9 // indirect
	github.com/hashicorp/serf v0.9.8 // indirect
	github.com/hashicorp/vault/api v1.7.2 // indirect
	github.com/hashicorp/vault/sdk v0.5.2 // indirect
	github.com/hashicorp/yamux v0.0.0-20211028200310-0bc27b27de87 // indirect
	github.com/hpcloud/tail v1.0.1-0.20170814160653-37f427138745 // indirect
	github.com/huandu/xstrings v1.3.2 // indirect
	github.com/imdario/mergo v0.3.13 // indirect
	github.com/jefferai/isbadcipher v0.0.0-20190226160619-51d2077c035f // indirect
	github.com/lufia/plan9stats v0.0.0-20220517141722-cf486979b281 // indirect
	github.com/mattn/go-colorable v0.1.12 // indirect
	github.com/mattn/go-isatty v0.0.14 // indirect
	github.com/miekg/dns v1.1.50 // indirect
	github.com/mitchellh/cli v1.1.4 // indirect
	github.com/mitchellh/copystructure v1.2.0 // indirect
	github.com/mitchellh/go-homedir v1.1.0 // indirect
	github.com/mitchellh/go-testing-interface v1.14.1 // indirect
	github.com/mitchellh/go-wordwrap v1.0.1 // indirect
	github.com/mitchellh/hashstructure v1.1.0 // indirect
	github.com/mitchellh/mapstructure v1.5.0 // indirect
	github.com/mitchellh/reflectwalk v1.0.2 // indirect
	github.com/moby/sys/mount v0.3.3 // indirect
	github.com/moby/sys/mountinfo v0.6.2 // indirect
	github.com/oklog/run v1.1.0 // indirect
	github.com/pierrec/lz4 v2.6.1+incompatible // indirect
	github.com/pmezard/go-difflib v1.0.0 // indirect
	github.com/posener/complete v1.2.3 // indirect
	github.com/power-devops/perfstat v0.0.0-20220216144756-c35f1ee13d7c // indirect
	github.com/ryanuber/go-glob v1.0.0 // indirect
	github.com/shirou/gopsutil/v3 v3.22.6 // indirect
	github.com/shopspring/decimal v1.3.1 // indirect
	github.com/spf13/cast v1.5.0 // indirect
	github.com/stretchr/testify v1.8.0 // indirect
	github.com/tklauser/go-sysconf v0.3.10 // indirect
	github.com/tklauser/numcpus v0.5.0 // indirect
	github.com/vmihailenco/msgpack/v4 v4.3.12 // indirect
	github.com/vmihailenco/tagparser v0.1.2 // indirect
	github.com/yusufpapurcu/wmi v1.2.2 // indirect
	github.com/zclconf/go-cty v1.10.0 // indirect
	go.uber.org/atomic v1.9.0 // indirect
	golang.org/x/crypto v0.0.0-20220622213112-05595931fe9d // indirect
	golang.org/x/mod v0.6.0-dev.0.20220419223038-86c51ed26bb4 // indirect
	golang.org/x/net v0.0.0-20220630215102-69896b714898 // indirect
	golang.org/x/sys v0.0.0-20220702020025-31831981b65f // indirect
	golang.org/x/text v0.3.7 // indirect
	golang.org/x/time v0.0.0-20220609170525-579cf78fd858 // indirect
	golang.org/x/tools v0.1.11 // indirect
	google.golang.org/appengine v1.6.7 // indirect
	google.golang.org/genproto v0.0.0-20220630174209-ad1d48641aa7 // indirect
	google.golang.org/protobuf v1.28.0 // indirect
	gopkg.in/fsnotify.v1 v1.4.7 // indirect
	gopkg.in/square/go-jose.v2 v2.6.0 // indirect
	gopkg.in/tomb.v1 v1.0.0-20141024135613-dd632973f1e7 // indirect
	gopkg.in/yaml.v3 v3.0.1 // indirect
)
